{
  "HorizonLayout":[
    {
      "showMenu":true,
      "layout":"logo",
      "image":"https://periodicoelvespertino.com/wp-content/uploads/2020/10/Periodico-Vespertino-de-Chiapas-logo-and-Desing-ALDTECKRecurso-1.png",
      "showLogo":true,
      "showSearch":true
    },
    {
      "design":"stack",
      "layout":"bannerImage",
      "radius":20,
      "showBackGround":true,
      "items":[
        {
          "padding":15,
          "category":26,
          "image":"https://periodicoelvespertino.com/wp-content/uploads/2020/11/Periodico-Vespertino-de-Chiapas-Portada-Video-and-Desing-ALDTECK-sin-shawdow-logoRecurso-1.jpg"
        },
        {
          "category":22,
          "padding":15,
          "image":"https://periodicoelvespertino.com/wp-content/uploads/2020/10/Periodico-Vespertino-de-Chiapas-logo-Circle-shadow-and-Desing-ALDTECK-sin-shawdow-logoRecurso-2.png"
        },
        {
          "category":31,
          "image":"https://periodicoelvespertino.com/wp-content/uploads/2021/01/IMG-20210115-WA0013.jpg",
          "padding":15
        }
      ],
      "isSlider":true
    },
    {
      "category":85,
      "layout":"fourColumn",
      "isSnapping":false,
      "name":"Top Noticias"
    },
    {
      "name":"Nacionales",
      "category":35,
      "isSnapping":false,
      "layout":"fourColumn"
    },
    {
      "category":31,
      "layout":"staggered",
      "name":"Espactaculos",
      "isSnapping":false
    }
  ],
  "Setting":{
    "MainColor":"#ab1258",
    "ProductListLayout":"list",
    "StickyHeader":true,
    "ProductDetail":"halfSizeImageType"
  },
  "TabBar":[
    {
      "settings":["wishlist",
        "post",
        "notifications",
        "language",
        "darkTheme",
        "contact"],
      "layout":"home",
      "title":"",
      "showChat":false,
      "pos":100,
      "pageId":18,
      "icon":"assets/icons/tabs/icon-home.png",
      "url":"https://inspireui.com",
      "pageTitle":"Post Screen",
      "label":"Home",
      "categoryLayout":"card",
      "data":""
    },
    {
      "categoryLayout":"card",
      "pos":200,
      "layout":"category",
      "label":"Category",
      "icon":"assets/icons/tabs/icon-category.png"
    },
    {
      "pos":300,
      "label":"Search",
      "size":24,
      "layout":"search",
      "icon":"assets/icons/tabs/icon-search.png"
    },
    {
      "layout":"wishlist",
      "pos":400,
      "label":"Wish List",
      "icon":"assets/icons/tabs/icon-heartthin.png"
    },
    {
      "layout":"profile",
      "icon":"assets/icons/tabs/icon-user.png",
      "label":"Setting",
      "pos":500,
      "settings":["wishlist",
        "post",
        "notifications",
        "language",
        "darkTheme",
        "contact"]
    }
  ],
  "Drawer":{
    "logo":"assets/images/logo.png",
    "items":[
      {
        "type":"home",
        "show":true
      },
      {
        "type":"web",
        "show":true
      },
      {
        "type":"about",
        "show":true
      },
      {
        "type":"login",
        "show":true
      },
      {
        "type":"category",
        "show":true
      }
    ]
  },
  "VerticalLayout":{
    "category":18,
    "layout":"list",
    "name":"Internacionales",
    "key":"tt5i916liw"
  },
  "SplashScreen":{
    "data":"assets/images/splashscreen.png",
    "type":"animated"}
}